\relax 
\citation{eko}
\citation{Nowak}
\@writefile{toc}{\contentsline {chapter}{\numberline {1}Wst\IeC {\k e}p}{8}}
\@writefile{lof}{\addvspace {10\p@ }}
\@writefile{lot}{\addvspace {10\p@ }}
\newlabel{chapter:przeglad}{{1}{8}}
\@writefile{toc}{\contentsline {section}{\numberline {1.1}Wprowadzenie}{8}}
\@writefile{toc}{\contentsline {section}{\numberline {1.2}Cel i zakres pracy}{8}}
\@writefile{toc}{\contentsline {section}{\numberline {1.3}Podzia\IeC {\l } pracy}{9}}
\@setckpt{1_przeglad}{
\setcounter{page}{10}
\setcounter{equation}{0}
\setcounter{enumi}{0}
\setcounter{enumii}{0}
\setcounter{enumiii}{0}
\setcounter{enumiv}{0}
\setcounter{footnote}{0}
\setcounter{mpfootnote}{0}
\setcounter{part}{0}
\setcounter{chapter}{1}
\setcounter{section}{3}
\setcounter{subsection}{0}
\setcounter{subsubsection}{0}
\setcounter{paragraph}{0}
\setcounter{subparagraph}{0}
\setcounter{figure}{0}
\setcounter{table}{0}
\setcounter{float@type}{8}
\setcounter{lstnumber}{1}
\setcounter{lstlisting}{0}
}
