\relax 
\citation{kable}
\citation{Nowak2}
\citation{Nowak2}
\@writefile{toc}{\contentsline {chapter}{\numberline {2}Wsp\IeC {\'o}\IeC {\l }czesne systemy komunikacji}{10}}
\@writefile{lof}{\addvspace {10\p@ }}
\@writefile{lot}{\addvspace {10\p@ }}
\newlabel{chapter:metoda}{{2}{10}}
\@writefile{toc}{\contentsline {section}{\numberline {2.1}Rozwi\IeC {\k a}zania dotychczasowe}{10}}
\@writefile{toc}{\contentsline {subsection}{\numberline {2.1.1}Komunikacja przewodowa}{10}}
\@writefile{toc}{\contentsline {subsection}{\numberline {2.1.2}Komunikacja bezprzewodowa}{10}}
\citation{wago}
\@writefile{toc}{\contentsline {subsection}{\numberline {2.1.3}Systemy automatyki budynkowej}{11}}
\citation{Nowak}
\citation{Nowak}
\@writefile{toc}{\contentsline {section}{\numberline {2.2}Wyb\IeC {\'o}r rozwi\IeC {\k a}zania problemu}{12}}
\newlabel{tab:standardy_prad}{{2.2}{12}}
\@writefile{lot}{\contentsline {table}{\numberline {2.1}{\ignorespaces Pob\IeC {\'o}r pr\IeC {\k a}du przez r\IeC {\'o}\IeC {\.z}ne modu\IeC {\l }y komunikacji bezprzewodowej\nobreakspace  {}\cite  {Nowak}.}}{12}}
\citation{lora_alliance}
\citation{Kubiak_LoRa}
\citation{IEEE}
\@writefile{lot}{\contentsline {table}{\numberline {2.2}{\ignorespaces Por\IeC {\'o}wnanie komunikacji bezprzewodowej.}}{13}}
\newlabel{tab:porownanie}{{2.2}{13}}
\@writefile{toc}{\contentsline {section}{\numberline {2.3}Standard LoRa}{13}}
\@writefile{lof}{\contentsline {figure}{\numberline {2.1}{\ignorespaces Architektura LoRaWAN\nobreakspace  {}\cite  {lora_alliance}.}}{13}}
\newlabel{fig:warstwy_lora}{{2.1}{13}}
\citation{RFM95W}
\citation{lora_alliance}
\citation{lora_alliance}
\@writefile{lof}{\contentsline {figure}{\numberline {2.2}{\ignorespaces Ramka LoRaWAN\nobreakspace  {}\cite  {lora_alliance}.}}{14}}
\newlabel{fig:ramka_lora}{{2.2}{14}}
\citation{lora_alliance}
\@writefile{lof}{\contentsline {figure}{\numberline {2.3}{\ignorespaces Topologia sieci LoRaWAN\nobreakspace  {}\cite  {lora_alliance}.}}{15}}
\newlabel{fig:topologia_lora}{{2.3}{15}}
\citation{IEEE}
\citation{RFM95W}
\@writefile{lof}{\contentsline {figure}{\numberline {2.4}{\ignorespaces Zastosowanie kluczy w sieci LoRaWAN\nobreakspace  {}\cite  {lora_alliance}.}}{16}}
\newlabel{fig:keys_lora}{{2.4}{16}}
\citation{lora_alliance}
\@writefile{lof}{\contentsline {figure}{\numberline {2.5}{\ignorespaces Metoda FHSS\nobreakspace  {}\cite  {RFM95W}.}}{17}}
\newlabel{fig:fhss}{{2.5}{17}}
\@setckpt{2_metoda}{
\setcounter{page}{18}
\setcounter{equation}{0}
\setcounter{enumi}{0}
\setcounter{enumii}{0}
\setcounter{enumiii}{0}
\setcounter{enumiv}{0}
\setcounter{footnote}{0}
\setcounter{mpfootnote}{0}
\setcounter{part}{0}
\setcounter{chapter}{2}
\setcounter{section}{3}
\setcounter{subsection}{0}
\setcounter{subsubsection}{0}
\setcounter{paragraph}{0}
\setcounter{subparagraph}{0}
\setcounter{figure}{5}
\setcounter{table}{2}
\setcounter{float@type}{8}
\setcounter{lstnumber}{1}
\setcounter{lstlisting}{0}
}
