\relax 
\citation{lorank8manual}
\citation{RFM95W}
\@writefile{toc}{\contentsline {chapter}{\numberline {3}Urz\IeC {\k a}dzenia ko\IeC {\'n}cowe}{18}}
\@writefile{lof}{\addvspace {10\p@ }}
\@writefile{lot}{\addvspace {10\p@ }}
\newlabel{chapter:implementacja}{{3}{18}}
\@writefile{toc}{\contentsline {section}{\numberline {3.1}Elementy wykorzystane w systemie opomiarowania}{18}}
\@writefile{toc}{\contentsline {subsection}{\numberline {3.1.1}Gateway Lora - Lorank 8}{18}}
\@writefile{lof}{\contentsline {figure}{\numberline {3.1}{\ignorespaces Bramka LoRank8.}}{18}}
\newlabel{fig:Lorank8}{{3.1}{18}}
\@writefile{toc}{\contentsline {subsection}{\numberline {3.1.2}Modu\IeC {\l } LoRa}{19}}
\@writefile{lof}{\contentsline {figure}{\numberline {3.2}{\ignorespaces Modu\IeC {\l } LoRa RFM95W.}}{19}}
\newlabel{RFM85W}{{3.2}{19}}
\newlabel{equation:1}{{3.1.2}{19}}
\newlabel{equation:2}{{3.1.2}{19}}
\@writefile{toc}{\contentsline {subsection}{\numberline {3.1.3}Arduino Pro Mini}{19}}
\@writefile{lof}{\contentsline {figure}{\numberline {3.3}{\ignorespaces Arduino Pro Mini 3,3 V 8 MHz.}}{20}}
\newlabel{fig:Arduino}{{3.3}{20}}
\@writefile{lot}{\contentsline {table}{\numberline {3.1}{\ignorespaces Po\IeC {\l }\IeC {\k a}czenia mikrokontrolera z innymi modu\IeC {\l }ami.}}{20}}
\newlabel{tab:polaczenia}{{3.1}{20}}
\@writefile{toc}{\contentsline {subsection}{\numberline {3.1.4}\IeC {\L }adowarka oraz zabezpieczenie ogniwa}{20}}
\citation{tp4056}
\citation{tp4056}
\citation{ht7333}
\@writefile{lof}{\contentsline {figure}{\numberline {3.4}{\ignorespaces \IeC {\L }adowarka TP4056.}}{21}}
\newlabel{fig:TP4056}{{3.4}{21}}
\@writefile{lot}{\contentsline {table}{\numberline {3.2}{\ignorespaces Zale\IeC {\.z}no\IeC {\'s}\IeC {\'c} pr\IeC {\k a}du \IeC {\l }adowania od warto\IeC {\'s}ci rezystora R3\nobreakspace  {}\cite  {tp4056}.}}{21}}
\newlabel{fig:TP4056_rezystor}{{3.2}{21}}
\@writefile{toc}{\contentsline {subsection}{\numberline {3.1.5}Stabilizator napi\IeC {\k e}cia}{21}}
\citation{ht7333_2}
\citation{bateria}
\@writefile{lof}{\contentsline {figure}{\numberline {3.5}{\ignorespaces Stabilizator wraz z filtracj\IeC {\k a} zasilania\nobreakspace  {}\cite  {ht7333_2}.}}{22}}
\newlabel{fig:ht7333_podlaczenie}{{3.5}{22}}
\@writefile{toc}{\contentsline {subsection}{\numberline {3.1.6}Ogniwo}{22}}
\@writefile{lof}{\contentsline {figure}{\numberline {3.6}{\ignorespaces Charakterystyka roz\IeC {\l }adowywania ogniwa\nobreakspace  {}\cite  {bateria}.}}{22}}
\newlabel{fig:bateria_wykres}{{3.6}{22}}
\citation{tranzystor}
\citation{zlacze_pn}
\citation{zlacze_pn}
\@writefile{toc}{\contentsline {subsection}{\numberline {3.1.7}Czujnik temperatury i wilgotno\IeC {\'s}ci}{23}}
\@writefile{lof}{\contentsline {figure}{\numberline {3.7}{\ignorespaces Czujnik DHT22.}}{23}}
\newlabel{fig:DHT22}{{3.7}{23}}
\@writefile{lof}{\contentsline {figure}{\numberline {3.8}{\ignorespaces Wp\IeC {\l }yw wzrostu temperatury na charakterystyk\IeC {\k e} z\IeC {\l }\IeC {\k a}cza p-n\nobreakspace  {}\cite  {zlacze_pn}.}}{23}}
\newlabel{fig:charakterystyka _zlacze_pn}{{3.8}{23}}
\citation{DHT}
\citation{DHT2}
\citation{pir33}
\citation{biss0001}
\@writefile{toc}{\contentsline {subsection}{\numberline {3.1.8}Czujnik ruchu}{24}}
\citation{podczerwien}
\citation{MQ135}
\@writefile{lof}{\contentsline {figure}{\numberline {3.9}{\ignorespaces Czujnik ruchu PIR HC-SR501.}}{25}}
\newlabel{fig:PIR}{{3.9}{25}}
\@writefile{toc}{\contentsline {subsection}{\numberline {3.1.9}Czujnik jako\IeC {\'s}ci powietrza}{25}}
\citation{MQ135}
\citation{MQ135}
\@writefile{lof}{\contentsline {figure}{\numberline {3.10}{\ignorespaces Czujnik jako\IeC {\'s}ci powietrza MQ135.}}{26}}
\newlabel{fig:MQ135}{{3.10}{26}}
\@writefile{lof}{\contentsline {figure}{\numberline {3.11}{\ignorespaces charakterystyka zmian oporno\IeC {\'s}ci w zale\IeC {\.z}no\IeC {\'s}ci od st\IeC {\k e}\IeC {\.z}enia gaz\IeC {\'o}w\nobreakspace  {}\cite  {MQ135}.}}{26}}
\newlabel{fig:mq135_charakterystyka}{{3.11}{26}}
\@writefile{toc}{\contentsline {subsection}{\numberline {3.1.10}Czujnik ci\IeC {\'s}nienia}{26}}
\citation{LPS331AP}
\citation{tranzystor}
\citation{IRLZ24N}
\@writefile{lof}{\contentsline {figure}{\numberline {3.12}{\ignorespaces Wyprowadzenia czujnika ci\IeC {\'s}nienia.}}{27}}
\newlabel{fig:lps331ap}{{3.12}{27}}
\@writefile{toc}{\contentsline {subsection}{\numberline {3.1.11}Tranzystor IRLZ24N}{27}}
\@writefile{lof}{\contentsline {figure}{\numberline {3.13}{\ignorespaces Schemat tranzystora IRLZ24N typu N\nobreakspace  {}\cite  {IRLZ24N}.}}{28}}
\newlabel{fig:tranzystor_schemat}{{3.13}{28}}
\@writefile{toc}{\contentsline {subsection}{\numberline {3.1.12}Rezystancyjny dzielnik napi\IeC {\k e}cia}{28}}
\citation{dzielnik}
\@writefile{lof}{\contentsline {figure}{\numberline {3.14}{\ignorespaces Rezystancyjny dzielnik napi\IeC {\k e}cia.}}{29}}
\newlabel{fig:dzielnik napiecia}{{3.14}{29}}
\newlabel{equation:3}{{3.1}{29}}
\newlabel{equation:4}{{3.1.12}{29}}
\@writefile{toc}{\contentsline {section}{\numberline {3.2}Schemat po\IeC {\l }\IeC {\k a}cze\IeC {\'n} elektronicznych}{29}}
\@writefile{toc}{\contentsline {subsection}{\numberline {3.2.1}Schemat po\IeC {\l }\IeC {\k a}cze\IeC {\'n} - program Eagle}{29}}
\@writefile{lof}{\contentsline {figure}{\numberline {3.15}{\ignorespaces Schemat zasilania urz\IeC {\k a}dze\IeC {\'n} ko\IeC {\'n}cowych.}}{30}}
\newlabel{fig:eagle_zasilanie}{{3.15}{30}}
\@writefile{lof}{\contentsline {figure}{\numberline {3.16}{\ignorespaces Schemat po\IeC {\l }\IeC {\k a}cze\IeC {\'n} RFM95W.}}{30}}
\newlabel{fig:eagle_modul}{{3.16}{30}}
\@writefile{lof}{\contentsline {figure}{\numberline {3.17}{\ignorespaces Schemat po\IeC {\l }\IeC {\k a}cze\IeC {\'n} Arduino.}}{31}}
\newlabel{fig:eagle_arduino}{{3.17}{31}}
\@writefile{lof}{\contentsline {figure}{\numberline {3.18}{\ignorespaces Schemat po\IeC {\l }\IeC {\k a}cze\IeC {\'n} czujnik\IeC {\'o}w.}}{31}}
\newlabel{fig:eagle_czujniki}{{3.18}{31}}
\@writefile{toc}{\contentsline {subsection}{\numberline {3.2.2}P\IeC {\l }ytka drukowana}{32}}
\@writefile{lof}{\contentsline {figure}{\numberline {3.19}{\ignorespaces Projekt p\IeC {\l }ytki drukowanej.}}{32}}
\newlabel{fig:plytka_pcb}{{3.19}{32}}
\citation{antena}
\@writefile{lof}{\contentsline {figure}{\numberline {3.20}{\ignorespaces P\IeC {\l }ytka PCB po procesie wytrawiania.}}{33}}
\newlabel{fig:etap_pcb}{{3.20}{33}}
\citation{ATB_USBASP}
\citation{LowPower_bib}
\@writefile{lof}{\contentsline {figure}{\numberline {3.21}{\ignorespaces Zaprojektowana obudowa.}}{34}}
\newlabel{fig:obudowa}{{3.21}{34}}
\@writefile{toc}{\contentsline {section}{\numberline {3.3}Programowanie, u\IeC {\.z}yte biblioteki}{34}}
\@writefile{toc}{\contentsline {subsection}{\numberline {3.3.1}Arduino Pro Mini}{34}}
\@writefile{lof}{\contentsline {figure}{\numberline {3.22}{\ignorespaces Programator ATB-USBASP.}}{34}}
\newlabel{fig:ATB_USPASP}{{3.22}{34}}
\citation{Atmega328P}
\citation{DHT_bib}
\citation{LPS_bib}
\newlabel{lst:331}{{3.1}{35}}
\@writefile{lol}{\contentsline {lstlisting}{\numberline {3.1}Biblioteka LowPower.}{35}}
\@writefile{toc}{\contentsline {subsection}{\numberline {3.3.2}Czujnik temperatury i wilgotno\IeC {\'s}ci}{35}}
\newlabel{lst:332}{{3.2}{35}}
\@writefile{lol}{\contentsline {lstlisting}{\numberline {3.2}Biblioteka czujnika terperatury i wilgotno\IeC {\'s}ci.}{35}}
\@writefile{toc}{\contentsline {subsection}{\numberline {3.3.3}Czujnik ci\IeC {\'s}nienia}{35}}
\citation{MQ135_bib}
\citation{ijarcsse}
\citation{LMIC}
\@writefile{toc}{\contentsline {subsection}{\numberline {3.3.4}Czujnik jako\IeC {\'s}ci powietrza}{36}}
\newlabel{equation:5}{{3.2}{36}}
\@writefile{toc}{\contentsline {subsection}{\numberline {3.3.5}Biblioteka LoraMAC-in-C}{36}}
\@writefile{toc}{\contentsline {subsection}{\numberline {3.3.6}Algorytm programu}{37}}
\@writefile{lof}{\contentsline {figure}{\numberline {3.23}{\ignorespaces Zasada dzia\IeC {\l }ania programu.}}{37}}
\newlabel{fig:program}{{3.23}{37}}
\@setckpt{3_implementacja}{
\setcounter{page}{38}
\setcounter{equation}{2}
\setcounter{enumi}{0}
\setcounter{enumii}{0}
\setcounter{enumiii}{0}
\setcounter{enumiv}{0}
\setcounter{footnote}{0}
\setcounter{mpfootnote}{0}
\setcounter{part}{0}
\setcounter{chapter}{3}
\setcounter{section}{3}
\setcounter{subsection}{6}
\setcounter{subsubsection}{0}
\setcounter{paragraph}{0}
\setcounter{subparagraph}{0}
\setcounter{figure}{23}
\setcounter{table}{2}
\setcounter{float@type}{8}
\setcounter{lstnumber}{4}
\setcounter{lstlisting}{2}
}
