\relax 
\citation{TTN}
\@writefile{toc}{\contentsline {chapter}{\numberline {4}Schemat sieci}{38}}
\@writefile{lof}{\addvspace {10\p@ }}
\@writefile{lot}{\addvspace {10\p@ }}
\newlabel{chapter:rezultaty}{{4}{38}}
\@writefile{toc}{\contentsline {section}{\numberline {4.1}Sie\IeC {\'c} The Things Network}{38}}
\@writefile{toc}{\contentsline {subsection}{\numberline {4.1.1}Dekodowanie danych}{38}}
\@writefile{lof}{\contentsline {figure}{\numberline {4.1}{\ignorespaces Przyk\IeC {\l }adowy pomiar w serwisie The Things Network.}}{38}}
\newlabel{fig:ttn_pomiary}{{4.1}{38}}
\newlabel{lst:1}{{4.1}{39}}
\@writefile{lol}{\contentsline {lstlisting}{\numberline {4.1}Dekodowanie danych.}{39}}
\@writefile{toc}{\contentsline {section}{\numberline {4.2}Aplikacja Internetowa}{39}}
\@writefile{toc}{\contentsline {subsection}{\numberline {4.2.1}Komunikacja z baz\IeC {\k a} danych}{39}}
\@writefile{lof}{\contentsline {figure}{\numberline {4.2}{\ignorespaces Algorytm zapisu danych do bazy.}}{40}}
\newlabel{fig:post_php}{{4.2}{40}}
\@writefile{lof}{\contentsline {figure}{\numberline {4.3}{\ignorespaces Algorytm odczytu danych z bazy.}}{41}}
\newlabel{fig:get_php}{{4.3}{41}}
\@writefile{toc}{\contentsline {subsection}{\numberline {4.2.2}Aplikacja HTML}{42}}
\newlabel{lst:2}{{4.2}{42}}
\@writefile{lol}{\contentsline {lstlisting}{\numberline {4.2}Zbudowanie wykresu.}{42}}
\newlabel{lst:3}{{4.3}{43}}
\@writefile{lol}{\contentsline {lstlisting}{\numberline {4.3}Pobieranie danych.}{43}}
\newlabel{lst:4}{{4.4}{43}}
\@writefile{lol}{\contentsline {lstlisting}{\numberline {4.4}Funkcja odpowiedzialna za sprawdzania danych na wykresie.}{43}}
\@setckpt{4_rezultaty}{
\setcounter{page}{44}
\setcounter{equation}{0}
\setcounter{enumi}{0}
\setcounter{enumii}{0}
\setcounter{enumiii}{0}
\setcounter{enumiv}{0}
\setcounter{footnote}{0}
\setcounter{mpfootnote}{0}
\setcounter{part}{0}
\setcounter{chapter}{4}
\setcounter{section}{2}
\setcounter{subsection}{2}
\setcounter{subsubsection}{0}
\setcounter{paragraph}{0}
\setcounter{subparagraph}{0}
\setcounter{figure}{3}
\setcounter{table}{0}
\setcounter{float@type}{8}
\setcounter{lstnumber}{11}
\setcounter{lstlisting}{4}
}
