\relax 
\@writefile{toc}{\contentsline {chapter}{\numberline {5}Podsumowanie}{44}}
\@writefile{lof}{\addvspace {10\p@ }}
\@writefile{lot}{\addvspace {10\p@ }}
\newlabel{chapter:wstep}{{5}{44}}
\citation{lora_alliance}
\citation{lora_alliance}
\citation{lora_alliance}
\citation{lora_alliance}
\citation{RFM95W}
\citation{ht7333_2}
\citation{bateria}
\citation{zlacze_pn}
\citation{MQ135}
\citation{IRLZ24N}
\citation{Nowak}
\citation{tp4056}
\@setckpt{_podsumowanie}{
\setcounter{page}{48}
\setcounter{equation}{0}
\setcounter{enumi}{0}
\setcounter{enumii}{0}
\setcounter{enumiii}{0}
\setcounter{enumiv}{0}
\setcounter{footnote}{0}
\setcounter{mpfootnote}{0}
\setcounter{part}{0}
\setcounter{chapter}{5}
\setcounter{section}{0}
\setcounter{subsection}{0}
\setcounter{subsubsection}{0}
\setcounter{paragraph}{0}
\setcounter{subparagraph}{0}
\setcounter{figure}{0}
\setcounter{table}{0}
\setcounter{float@type}{8}
\setcounter{lstnumber}{11}
\setcounter{lstlisting}{0}
}
