\relax 
\@writefile{toc}{\contentsline {chapter}{\numberline {A}Rejestracja bramki i urz\IeC {\k a}dze\IeC {\'n}}{51}}
\@writefile{lof}{\addvspace {10\p@ }}
\@writefile{lot}{\addvspace {10\p@ }}
\newlabel{chapter:dodatek_A}{{A}{51}}
\@writefile{lof}{\contentsline {figure}{\numberline {A.1}{\ignorespaces Panel kontrolny The Things Network.}}{51}}
\newlabel{fig:ttn1}{{A.1}{51}}
\@writefile{lof}{\contentsline {figure}{\numberline {A.2}{\ignorespaces Rejestracja bramki.}}{52}}
\newlabel{fig:ttn2}{{A.2}{52}}
\@setckpt{dodatek_A}{
\setcounter{page}{53}
\setcounter{equation}{0}
\setcounter{enumi}{0}
\setcounter{enumii}{0}
\setcounter{enumiii}{0}
\setcounter{enumiv}{35}
\setcounter{footnote}{0}
\setcounter{mpfootnote}{0}
\setcounter{part}{0}
\setcounter{chapter}{1}
\setcounter{section}{0}
\setcounter{subsection}{0}
\setcounter{subsubsection}{0}
\setcounter{paragraph}{0}
\setcounter{subparagraph}{0}
\setcounter{figure}{2}
\setcounter{table}{0}
\setcounter{float@type}{8}
\setcounter{lstnumber}{11}
\setcounter{lstlisting}{0}
}
