\relax 
\@input{strona_tytulowa.aux}
\@input{__wstep.aux}
\@input{1_przeglad.aux}
\@input{2_metoda.aux}
\@input{3_implementacja.aux}
\@input{4_rezultaty.aux}
\@input{_podsumowanie.aux}
\bibstyle{plplain}
\bibdata{pd}
\bibcite{IEEE}{1}
\bibcite{DHT}{2}
\bibcite{DHT2}{3}
\bibcite{Atmega328P}{4}
\bibcite{ijarcsse}{5}
\bibcite{tranzystor}{6}
\bibcite{ht7333_2}{7}
\bibcite{ht7333}{8}
\bibcite{RFM95W}{9}
\bibcite{LMIC}{10}
\bibcite{lorank8manual}{11}
\bibcite{IRLZ24N}{12}
\bibcite{ATB_USBASP}{13}
\bibcite{podczerwien}{14}
\bibcite{MQ135_bib}{15}
\bibcite{Kubiak_LoRa}{16}
\bibcite{lora_alliance}{17}
\bibcite{zlacze_pn}{18}
\bibcite{eko}{19}
\bibcite{antena}{20}
\bibcite{tp4056}{21}
\bibcite{Nowak}{22}
\bibcite{Nowak2}{23}
\bibcite{MQ135}{24}
\bibcite{dzielnik}{25}
\bibcite{LPS_bib}{26}
\bibcite{LPS331AP}{27}
\bibcite{LowPower_bib}{28}
\bibcite{bateria}{29}
\bibcite{biss0001}{30}
\bibcite{pir33}{31}
\bibcite{TTN}{32}
\bibcite{DHT_bib}{33}
\bibcite{wago}{34}
\bibcite{kable}{35}
\@input{dodatek_A.aux}
\@input{dodatek_B.aux}
